sex,birthday,pe_date,lat_pe,tear_h,ddt,syr,lat_pe2,tear_h2,ddt2,syr2,dcg_date,dcg_lat,dcg_level,dcg_obst,dcg_cause,dcg_lat2,dcg_level2,dcg_obst2,dcg_cause2,dacryo_date,dacry_lat,dacry_level,dacry_obst,dacry_cause,dacry_lat2,dacry_level2,dacry_obst2,dacry_cause2
F,1938-04-19,2017-06-27,R,2,2,2,L,2,2,2,2017-08-18,R,6,2,5,L,6,2,5,2017-09-04,R,6,1,4,L,2,2,2
F,1955-10-11,2017-07-04,R,3,2,2,L,2,2,2,2017-07-19,R,6,2,5,L,6,2,5,2017-08-04,R,6,2,4,L,6,2,4
F,1937-12.30,2017-07-15,R,2,2,3,L,2,2,2,2017-07-28,R,5,2,4,L,5,2,4,2017-08-28,R,5,2,4,L,5,2,4
M,1938-12-29,2017-07-18,R,1,2,2,L,1,2,2,2017-08-30,R,7,3,6,L,7,3,6,2017-09-11,R,1,2,4,L,1,2,4
M,1947-09-09,2017-07-26,R,2,1,2,L,2,1,2,2017-07-31,R,7,3,6,L,7,3,6,2017-08-14,R,6,2,1,L,6,2,1
F,1947-05-05,2017-08-03,R,1,1,2,L,1,1,2,2017-08-18,R,6,2,2,L,7,3,6,2017-08-18,R,6,2,1,L,7,3,6
F,1938-03-24,2017-08-04,R,0,2,1,L,0,2,1,2017-09-01,R,5,1,5,L,5,1,5,2017-09-08,R,5,1,5,L,5,1,5
F,1964-07-12,2017-08-17,R,1,1,2,L,2,2,1,2017-08-25,R,3,2,5,L,3,2,5,2017-08-28,R,3,2,4,L,3,1,4
M,1945-05-25,2017-08-17,R,4,3,1,L,2,2,2,2017-10-23,R,6,1,5,L,6,2,5,2017-10-30,R,6,1,4,L,6,2,4
F,1939-06-29,2017-08-24,R,1,1,1,L,2,2,1,2017-08-24,R,1,1,5,L,1,1,5,2017-09-01,R,1-3,1,4,L,1-3,1,4
F,1937-10-18,2017-09-06,R,2,2,1,L,2,2,2,2017-09-06,R,6,2,1,L,7,3,6,2017-09-11,R,6,2,1,L,7,3,6
M,1966-04-09,2017-09-13,R,2,1,2,L,3,3,2,2017-10-11,R,5,1,5,L,5,1,5,2017-10-23,R,2-6,1,4,L,3,1,4
M,1953-07-01,2017-10-31,R,2,2,2,L,1,0,2,2017-11-03,R,7,3,6,L,7,3,6,2017-11-20,R,6-8,2,4,L,5,2,4
F,1954-01-05,2017-11-02,R,2,1,2,L,3,2,1,2017-11-20,R,7,3,6,L,3,2,5,2017-11-27,R,3,2,4,L,1-3,2,4
F,1956-10-15,2017-11-25,R,2,2,2,L,1,2,2,2018-01-08,R,7,3,6,L,3,2,4,2018-01-12,R,1,2,4,L,3,2,4
M,1899-05-28,2017-12-05,R,1,2,2,L,1,2,2,2018-01-15,R,7,3,5,L,1,2,5,2018-01-26,R,6,2,1-4,L,1-6,2,1-4
F,1955-11-03,2017-12-03,R,2,1,2,L,2,2,2,2017-12-13,R,8,2,4,L,7,3,6,2017-12-18,R,8,2,4,L,8,2,4
F,1956-02-10,2017-12-13,R,2,2,1,L,2,2,1,2017-12-18,R,6,2,5,L,6,2,5,2018-01-19,R,6,2,4,L,6,2,4
F,1940-08-08,2018-01-27,R,2,2,2,L,1,1,2,2018-02-12,R,6,2,5,L,7,3,6,2018-02-28,R,3,2,4,L,7,3,6
F,1969-05-01,2018-01-24,R,2,2,2,L,2,3,2,2018-01-24,R,7,3,6,L,3,2,5,2018-03-09,R,6,2,1,L,3,2,4
